{
    "page": 1,
    "total_results": 10000,
    "total_pages": 500,
    "results": [
      {
        "popularity": 2300.002,
        "vote_count": 62,
        "video": false,
        "poster_path": "\/h8Rb9gBr48ODIwYUttZNYeMWeUU.jpg",
        "id": 635302,
        "adult": false,
        "backdrop_path": "\/xoqr4dMbRJnzuhsWDF3XNHQwJ9x.jpg",
        "original_language": "ja",
        "original_title": "劇場版「鬼滅の刃」無限列車編",
        "genre_ids": [
          16,
          28,
          36,
          12,
          14,
          18
        ],
        "title": "Demon Slayer: Kimetsu no Yaiba - The Movie: Mugen Train",
        "vote_average": 6.4,
        "overview": "Tanjirō Kamado, joined with Inosuke Hashibira, a boy raised by boars who wears a boar's head, and Zenitsu Agatsuma, a scared boy who reveals his true power when he sleeps, boards the Infinity Train on a new mission with the Fire Hashira, Kyōjurō Rengoku, to defeat a demon who has been tormenting the people and killing the demon slayers who oppose it!",
        "release_date": "2020-10-16"
      }
    ]
  }